Data visualisation - r4ds
…
HadleyHadley

ggplot2

install.packages

library

R

data.frame

mpg
#># A tibble: 234 x 11
#>  manufacturer model displ  year   cyl trans drv     cty   hwy fl
#>  <chr>        <chr> <dbl> <int> <int> <chr> <chr> <int> <int> <chr>
#>  1 audi         a4      1.8  1999     4 auto f        18    29 p
#>  2 audi         a4      1.8  1999     4 manu f        21    29 p
#>  3 audi         a4      2    2008     4 manu f        20    31 p
#>  4 audi         a4      2    2008     4 auto f        21    30 p
#>  5 audi         a4      2.8  1999     6 auto f        16    26 p
#>  6 audi         a4      2.8  1999     6 manu f        18    26 p
#>  # ... with 228 more rows, and 1 more variable: class <chr>
…
