Data transformation - r4ds
…
dplyr

tidyverse

install.packages("nycflights13")
library(nycflights13)
library(tidyverse)

nycflights13::flights

2013336,776

flights

## # A tibble: 336,776 x 19
##     year month   day dep_time sched_dep_time dep_delay arr_time
##    <int> <int> <int>    <int>          <int>     <dbl>    <int>
##  1  2013     1     1      517            515         2      830
##  2  2013     1     1      533            529         4      850
##  3  2013     1     1      542            540         2      923
##  4  2013     1     1      544            545        -1     1004
##  5  2013     1     1      554            600        -6      812
##  6  2013     1     1      554            558        -4      740
##  7  2013     1     1      555            600        -5      913
##  8  2013     1     1      557            600        -3      709
##  9  2013     1     1      557            600        -3      838
## 10  2013     1     1      558            600        -2      753
## #  with 336,766 more rows, and 12 more variables: sched_arr_time <int>,
## #   arr_delay <dbl>, carrier <chr>, flight <int>, tailnum <chr>,
## #   origin <chr>, dest <chr>, air_time <dbl>, distance <dbl>, hour <dbl>,
## #   minute <dbl>, time_hour <dttm>
…
 mutate()

 summarise()

group_by()

dplyr()

dplyr dplyr

 filter()

filter(flights, month == 1, day == 1)

## # A tibble: 842 x 19
##     year month   day dep_time sched_dep_time dep_delay arr_time
##    <int> <int> <int>    <int>          <int>     <dbl>    <int>
##  1  2013     1     1      517            515         2      830
##  2  2013     1     1      533            529         4      850
##  3  2013     1     1      542            540         2      923
##  4  2013     1     1      544            545        -1     1004
##  5  2013     1     1      554            600        -6      812
##  6  2013     1     1      554            558        -4      740
##  7  2013     1     1      555            600        -5      913
##  8  2013     1     1      557            600        -3      709
##  9  2013     1     1      557            600        -3      838
## 10  2013     1     1      558            600        -2      753
## #  with 832 more rows, and 12 more variables: sched_arr_time <int>,
## #   arr_delay <dbl>, carrier <chr>, flight <int>, tailnum <chr>,
## #   origin <chr>, dest <chr>, air_time <dbl>, distance <dbl>, hour <dbl>,
## #   minute <dbl>, time_hour <dttm>
…
filter()

filter()TRUEFALSENA

filter(df, !is.na(val))

1~4

 arrange()

arrange()

arrange(flights, year, month, day)

## # A tibble: 336,776 x 19
##     year month   day dep_time sched_dep_time dep_delay arr_time
##    <int> <int> <int>    <int>          <int>     <dbl>    <int>
##  1  2013     1     1      517            515         2      830
##  2  2013     1     1      533            529         4      850
##  3  2013     1     1      542            540         2      923
##  4  2013     1     1      544            545        -1     1004
##  5  2013     1     1      554            600        -6      812
##  6  2013     1     1      554            558        -4      740
##  7  2013     1     1      555            600        -5      913
##  8  2013     1     1      557            600        -3      709
##  9  2013     1     1      557            600        -3      838
## 10  2013     1     1      558            600        -2      753
## #  with 336,766 more rows, and 12 more variables: sched_arr_time <int>,
## #   arr_delay <dbl>, carrier <chr>, flight <int>, tailnum <chr>,
## #   origin <chr>, dest <chr>, air_time <dbl>, distance <dbl>, hour <dbl>,
## #   minute <dbl>, time_hour <dttm>

desc()

arrange(flights, desc(dep_delay))

## # A tibble: 336,776 x 19
##     year month   day dep_time sched_dep_time dep_delay arr_time
##    <int> <int> <int>    <int>          <int>     <dbl>    <int>
##  1  2013     1     9      641            900      1301     1242
##  2  2013     6    15     1432           1935      1137     1607
##  3  2013     1    10     1121           1635      1126     1239
##  4  2013     9    20     1139           1845      1014     1457
##  5  2013     7    22      845           1600      1005     1044
##  6  2013     4    10     1100           1900       960     1342
##  7  2013     3    17     2321            810       911      135
##  8  2013     6    27      959           1900       899     1236
##  9  2013     7    22     2257            759       898      121
## 10  2013    12     5      756           1700       896     1058
## #  with 336,766 more rows, and 12 more variables: sched_arr_time <int>,
## #   arr_delay <dbl>, carrier <chr>, flight <int>, tailnum <chr>,
## #   origin <chr>, dest <chr>, air_time <dbl>, distance <dbl>, hour <dbl>,
## #   minute <dbl>, time_hour <dttm>

NA

NA

1~4

 select()

select()()

select(flights, year, month, day)

## # A tibble: 336,776 x 3
##     year month   day
##    <int> <int> <int>
##  1  2013     1     1
##  2  2013     1     1
##  3  2013     1     1
##  4  2013     1     1
##  5  2013     1     1
##  6  2013     1     1
##  7  2013     1     1
##  8  2013     1     1
##  9  2013     1     1
## 10  2013     1     1
## #  with 336,766 more rows

select(flights, year:day)

## # A tibble: 336,776 x 3
##     year month   day
##    <int> <int> <int>
##  1  2013     1     1
##  2  2013     1     1
##  3  2013     1     1
##  4  2013     1     1
##  5  2013     1     1
##  6  2013     1     1
##  7  2013     1     1
##  8  2013     1     1
##  9  2013     1     1
## 10  2013     1     1
## #  with 336,766 more rows

select(flights, -(year:day))

## # A tibble: 336,776 x 16
##    dep_time sched_dep_time dep_delay arr_time sched_arr_time arr_delay
##       <int>          <int>     <dbl>    <int>          <int>     <dbl>
##  1      517            515         2      830            819        11
##  2      533            529         4      850            830        20
##  3      542            540         2      923            850        33
##  4      544            545        -1     1004           1022       -18
##  5      554            600        -6      812            837       -25
##  6      554            558        -4      740            728        12
##  7      555            600        -5      913            854        19
##  8      557            600        -3      709            723       -14
##  9      557            600        -3      838            846        -8
## 10      558            600        -2      753            745         8
## #  with 336,766 more rows, and 10 more variables: carrier <chr>,
## #   flight <int>, tailnum <chr>, origin <chr>, dest <chr>, air_time <dbl>,
## #   distance <dbl>, hour <dbl>, minute <dbl>, time_hour <dttm>
start_with("abc")

ends_with("xyz")

contains("ijk")

matches("(.)\\1"): 

num_range("x", 1:3)

everything()

select(flights, time_hour, air_time, everything())

## # A tibble: 336,776 x 19
##    time_hour           air_time  year month   day dep_time sched_dep_time
##    <dttm>                 <dbl> <int> <int> <int>    <int>          <int>
##  1 2013-01-01 05:00:00      227  2013     1     1      517            515
##  2 2013-01-01 05:00:00      227  2013     1     1      533            529
##  3 2013-01-01 05:00:00      160  2013     1     1      542            540
##  4 2013-01-01 05:00:00      183  2013     1     1      544            545
##  5 2013-01-01 06:00:00      116  2013     1     1      554            600
##  6 2013-01-01 05:00:00      150  2013     1     1      554            558
##  7 2013-01-01 06:00:00      158  2013     1     1      555            600
##  8 2013-01-01 06:00:00       53  2013     1     1      557            600
##  9 2013-01-01 06:00:00      140  2013     1     1      557            600
## 10 2013-01-01 06:00:00      138  2013     1     1      558            600
## #  with 336,766 more rows, and 12 more variables: dep_delay <dbl>,
## #   arr_time <int>, sched_arr_time <int>, arr_delay <dbl>, carrier <chr>,
## #   flight <int>, tailnum <chr>, origin <chr>, dest <chr>, distance <dbl>,
## #   hour <dbl>, minute <dbl>
…
 transmute()

mutate()select

transmute(flights, 
          gain = dep_delay - arr_delay,
          hours = air_time / 60,
          gain_per_hour = gain / hours
)

## # A tibble: 336,776 x 3
##     gain hours gain_per_hour
##    <dbl> <dbl>         <dbl>
##  1    -9 3.78          -2.38
##  2   -16 3.78          -4.23
##  3   -31 2.67         -11.6 
##  4    17 3.05           5.57
##  5    19 1.93           9.83
##  6   -16 2.5           -6.4 
##  7   -24 2.63          -9.11
##  8    11 0.883         12.5 
##  9     5 2.33           2.14
## 10   -10 2.3           -4.35
## #  with 336,766 more rows
…
## [1]  1  2  3 NA  4  5

dense_rank(y)

## [1]  1  2  2 NA  3  4

percent_rank(y)

## [1] 0.00 0.25 0.25   NA 0.75 1.00

mutate(flights, row_number()) %>%
  select(`row_number()`, everything())

## # A tibble: 336,776 x 20
##    `row_number()`  year month   day dep_time sched_dep_time dep_delay
##             <int> <int> <int> <int>    <int>          <int>     <dbl>
##  1              1  2013     1     1      517            515         2
##  2              2  2013     1     1      533            529         4
##  3              3  2013     1     1      542            540         2
##  4              4  2013     1     1      544            545        -1
##  5              5  2013     1     1      554            600        -6
##  6              6  2013     1     1      554            558        -4
##  7              7  2013     1     1      555            600        -5
##  8              8  2013     1     1      557            600        -3
##  9              9  2013     1     1      557            600        -3
## 10             10  2013     1     1      558            600        -2
## #  with 336,766 more rows, and 13 more variables: arr_time <int>,
## #   sched_arr_time <int>, arr_delay <dbl>, carrier <chr>, flight <int>,
## #   tailnum <chr>, origin <chr>, dest <chr>, air_time <dbl>,
## #   distance <dbl>, hour <dbl>, minute <dbl>, time_hour <dttm>
1~6

 summarise()

summarise(flights, delay = mean(dep_delay, na.rm = TRUE))

## # A tibble: 1 x 1
##   delay
##   <dbl>
## 1  12.6

by_day <- group_by(flights, year, month, day)
summarise(by_day, delay = mean(dep_delay, na.rm = TRUE))

## # A tibble: 365 x 4
## # Groups:   year, month [12]
##     year month   day delay
##    <int> <int> <int> <dbl>
##  1  2013     1     1 11.5 
##  2  2013     1     2 13.9 
##  3  2013     1     3 11.0 
##  4  2013     1     4  8.95
##  5  2013     1     5  5.73
##  6  2013     1     6  7.15
##  7  2013     1     7  5.42
##  8  2013     1     8  2.55
##  9  2013     1     9  2.28
## 10  2013     1    10  2.84
## #  with 355 more rows
…
summarisein/out

mutatein/ou

mean

not_cancelled %>%
  group_by(year, month, day) %>%
  summarise(
    avg_delay1 = mean(arr_delay),
    avg_delay2 = mean(arr_delay[arr_delay > 0])
  )

## # A tibble: 365 x 5
## # Groups:   year, month [12]
##     year month   day avg_delay1 avg_delay2
##    <int> <int> <int>      <dbl>      <dbl>
##  1  2013     1     1     12.7         32.5
##  2  2013     1     2     12.7         32.0
##  3  2013     1     3      5.73        27.7
##  4  2013     1     4     -1.93        28.3
##  5  2013     1     5     -1.53        22.6
##  6  2013     1     6      4.24        24.4
##  7  2013     1     7     -4.95        27.8
##  8  2013     1     8     -3.23        20.8
##  9  2013     1     9     -0.264       25.6
## 10  2013     1    10     -5.90        27.3
## #  with 355 more rows

()

not_cancelled %>%
  group_by(dest) %>%
  summarise(distance_sd = sd(distance)) %>%
  arrange(desc(distance_sd))

## # A tibble: 104 x 2
##    dest  distance_sd
##    <chr>       <dbl>
##  1 EGE         10.5 
##  2 SAN         10.4 
##  3 SFO         10.2 
##  4 HNL         10.0 
##  5 SEA          9.98
##  6 LAS          9.91
##  7 PDX          9.87
##  8 PHX          9.86
##  9 LAX          9.66
## 10 IND          9.46
## #  with 94 more rows

()

not_cancelled %>%
  group_by(year, month, day) %>%
  summarise(
    first = min(dep_time),
    last = max(dep_time)
  )

## # A tibble: 365 x 5
## # Groups:   year, month [12]
##     year month   day first  last
##    <int> <int> <int> <int> <int>
##  1  2013     1     1   517  2356
##  2  2013     1     2    42  2354
##  3  2013     1     3    32  2349
##  4  2013     1     4    25  2358
##  5  2013     1     5    14  2357
##  6  2013     1     6    16  2355
##  7  2013     1     7    49  2359
##  8  2013     1     8   454  2351
##  9  2013     1     9     2  2252
## 10  2013     1    10     3  2320
## #  with 355 more rows

()

not_cancelled %>%
  group_by(year, month, day) %>%
  summarise(
    first_dep = first(dep_time),
    last_dep = last(dep_time)
  )

## # A tibble: 365 x 5
## # Groups:   year, month [12]
##     year month   day first_dep last_dep
##    <int> <int> <int>     <int>    <int>
##  1  2013     1     1       517     2356
##  2  2013     1     2        42     2354
##  3  2013     1     3        32     2349
##  4  2013     1     4        25     2358
##  5  2013     1     5        14     2357
##  6  2013     1     6        16     2355
##  7  2013     1     7        49     2359
##  8  2013     1     8       454     2351
##  9  2013     1     9         2     2252
## 10  2013     1    10         3     2320
## #  with 355 more rows

not_cancelled %>%
  group_by(dest) %>%
  summarise(carriers = n_distinct(carrier)) %>%
  arrange(desc(carriers))

## # A tibble: 104 x 2
##    dest  carriers
##    <chr>    <int>
##  1 ATL          7
##  2 BOS          7
##  3 CLT          7
##  4 ORD          7
##  5 TPA          7
##  6 AUS          6
##  7 DCA          6
##  8 DTW          6
##  9 IAD          6
## 10 MSP          6
## #  with 94 more rows

count()

not_cancelled %>%
  count(dest)

not_cancelled %>%
  group_by(dest) %>%
  summarise(n = n())

## # A tibble: 104 x 2
##    dest      n
##    <chr> <int>
##  1 ABQ     254
##  2 ACK     264
##  3 ALB     418
##  4 ANC       8
##  5 ATL   16837
##  6 AUS    2411
##  7 AVL     261
##  8 BDL     412
##  9 BGR     358
## 10 BHM     269
## #  with 94 more rows

count()

not_cancelled %>%
  count(tailnum, wt = distance)

not_cancelled %>%
  group_by(tailnum) %>%
  summarise(n = sum(distance))

## # A tibble: 4,037 x 2
##    tailnum      n
##    <chr>    <dbl>
##  1 D942DN    3418
##  2 N0EGMQ  239143
##  3 N10156  109664
##  4 N102UW   25722
##  5 N103US   24619
##  6 N104UW   24616
##  7 N10575  139903
##  8 N105UW   23618
##  9 N107US   21677
## 10 N108UW   32070
## #  with 4,027 more rows
…
ungroup

ungroup()

group_by

1~6

filter

flights_sml %>%
  group_by(year, month, day) %>%
  filter(rank(desc(arr_delay)) <= 2)

## # A tibble: 722 x 7
## # Groups:   year, month, day [365]
##     year month   day dep_delay arr_delay distance air_time
##    <int> <int> <int>     <dbl>     <dbl>    <dbl>    <dbl>
##  1  2013     1     1       853       851      184       41
##  2  2013     1     1       379       456     1092      222
##  3  2013     1     2       337       368     2586      346
##  4  2013     1     2       379       359     1620      228
##  5  2013     1     3       268       270     1069      158
##  6  2013     1     3       291       285      765      125
##  7  2013     1     4       208       172     2153      285
##  8  2013     1     4       288       276      708      109
##  9  2013     1     5       257       248      740      133
## 10  2013     1     5       327       308     1010      158
## #  with 712 more rows

mutate

flights %>%
  group_by(dest) %>%
  filter(n() > 365) %>%
  mutate(prop_delay = arr_delay / sum(arr_delay, na.rm = TRUE)) %>%
  select(year:day, dest, arr_delay, prop_delay)

## # A tibble: 332,577 x 6
## # Groups:   dest [77]
##     year month   day dest  arr_delay prop_delay
##    <int> <int> <int> <chr>     <dbl>      <dbl>
##  1  2013     1     1 IAH          11  0.000366 
##  2  2013     1     1 IAH          20  0.000666 
##  3  2013     1     1 MIA          33  0.00952  
##  4  2013     1     1 BQN         -18 -0.00246  
##  5  2013     1     1 ATL         -25 -0.000131 
##  6  2013     1     1 ORD          12  0.000123 
##  7  2013     1     1 FLL          19  0.000198 
##  8  2013     1     1 IAD         -14 -0.000188 
##  9  2013     1     1 MCO          -8 -0.000105 
## 10  2013     1     1 ORD           8  0.0000822
## #  with 332,567 more rows
…
